%!PS-Adobe-3.0 EPSF-3.0
%%Creator: cairo 1.8.8 (http://cairographics.org)
%%CreationDate: Wed Sep  9 11:50:50 2020
%%Pages: 1
%%BoundingBox: 0 0 337 143
%%DocumentData: Clean7Bit
%%LanguageLevel: 2
%%EndComments
%%BeginProlog
/cairo_eps_state save def
/dict_count countdictstack def
/op_count count 1 sub def
userdict begin
/q { gsave } bind def
/Q { grestore } bind def
/cm { 6 array astore concat } bind def
/w { setlinewidth } bind def
/J { setlinecap } bind def
/j { setlinejoin } bind def
/M { setmiterlimit } bind def
/d { setdash } bind def
/m { moveto } bind def
/l { lineto } bind def
/c { curveto } bind def
/h { closepath } bind def
/re { exch dup neg 3 1 roll 5 3 roll moveto 0 rlineto
      0 exch rlineto 0 rlineto closepath } bind def
/S { stroke } bind def
/f { fill } bind def
/f* { eofill } bind def
/B { fill stroke } bind def
/B* { eofill stroke } bind def
/n { newpath } bind def
/W { clip } bind def
/W* { eoclip } bind def
/BT { } bind def
/ET { } bind def
/pdfmark where { pop globaldict /?pdfmark /exec load put }
    { globaldict begin /?pdfmark /pop load def /pdfmark
    /cleartomark load def end } ifelse
/BDC { mark 3 1 roll /BDC pdfmark } bind def
/EMC { mark /EMC pdfmark } bind def
/cairo_store_point { /cairo_point_y exch def /cairo_point_x exch def } def
/Tj { show currentpoint cairo_store_point } bind def
/TJ {
  {
    dup
    type /stringtype eq
    { show } { -0.001 mul 0 cairo_font_matrix dtransform rmoveto } ifelse
  } forall
  currentpoint cairo_store_point
} bind def
/cairo_selectfont { cairo_font_matrix aload pop pop pop 0 0 6 array astore
    cairo_font exch selectfont cairo_point_x cairo_point_y moveto } bind def
/Tf { pop /cairo_font exch def /cairo_font_matrix where
      { pop cairo_selectfont } if } bind def
/Td { matrix translate cairo_font_matrix matrix concatmatrix dup
      /cairo_font_matrix exch def dup 4 get exch 5 get cairo_store_point
      /cairo_font where { pop cairo_selectfont } if } bind def
/Tm { 2 copy 8 2 roll 6 array astore /cairo_font_matrix exch def
      cairo_store_point /cairo_font where { pop cairo_selectfont } if } bind def
/g { setgray } bind def
/rg { setrgbcolor } bind def
/d1 { setcachedevice } bind def
%%EndProlog
%%Page: 1 1
%%BeginPageSetup
%%PageBoundingBox: 0 0 337 143
%%EndPageSetup
q
0.701961 0.694118 0.701961 rg
64.105 111.113 m 57.254 108.871 43.211 117.653 36 117.653 c 28.789 
117.653 14.746 108.883 7.895 111.113 c 7.441 111.258 6.863 112.086 
6.434 112.805 c 5.93 110.61 5.688 108.356 5.688 106.074 c 5.688 104.227 
5.855 102.391 6.18 100.602 c 7.211 101.465 9.012 102.895 9.707 103.11 c 
11.543 103.676 15.059 102.653 16.379 101.863 c 17.652 101.106 19.633 
97.301 19.633 97.301 c 19.633 97.301 21.672 93.535 21.59 92.059 c 
21.492 90.524 19.895 87.512 18.395 86.309 c 17.82 85.856 15.707 85.145 
14.449 84.762 c 14.566 84.641 l 17.352 81.86 20.594 79.676 24.203 
78.149 c 24.289 78.113 24.371 78.078 24.469 78.043 c 24.18 78.965 
23.855 80.227 24 80.789 c 24.445 82.52 27.574 84.918 29.195 85.649 c 
30.758 86.36 36.012 86.32 36.012 86.32 c 36.012 86.32 41.27 86.36 
42.828 85.649 c 44.449 84.918 47.578 82.52 48.023 80.789 c 48.168 
80.227 47.844 78.965 47.555 78.043 c 47.641 78.078 47.723 78.113 47.82 
78.149 c 51.434 79.676 54.672 81.86 57.457 84.641 c 57.469 84.653 l 
56.316 85.004 53.785 85.817 53.148 86.32 c 51.648 87.524 50.039 90.535 
49.957 92.07 c 49.871 93.559 51.91 97.313 51.91 97.313 c 51.91 97.313 
53.879 101.117 55.164 101.875 c 56.496 102.668 60.012 103.688 61.836 
103.121 c 62.652 102.871 64.922 100.985 65.785 100.254 c 66.156 102.176 
66.348 104.117 66.348 106.074 c 66.348 108.367 66.098 110.621 65.605 
112.805 c 65.137 112.086 64.559 111.27 64.105 111.113 c 64.105 111.113 
l h
64.105 111.113 m f
0.0313726 0.101961 0.0901961 rg
36 142.074 m 16.117 142.074 0 125.957 0 106.074 c 0 86.192 16.117 
70.074 36 70.074 c 55.883 70.074 72 86.192 72 106.074 c 72 125.957 
55.883 142.074 36 142.074 c h
47.172 76.938 m 47.172 76.938 l 47.172 76.938 l 46.414 76.649 45.66 
76.399 44.902 76.172 c 44.891 76.172 l 43.453 75.738 41.988 75.426 
40.512 75.211 c 40.512 75.211 l 40.465 75.199 40.414 75.199 40.367 
75.188 c 39.793 75.113 l 39.793 75.113 l 39.672 75.102 39.562 75.09 
39.445 75.078 c 39.445 75.078 l 39.07 75.043 38.688 75.008 38.305 
74.969 c 38.305 74.969 l 38.16 74.957 38.016 74.945 37.883 74.945 c 
37.871 74.945 l 37.766 74.934 37.656 74.934 37.547 74.922 c 37.547 
74.922 l 37.379 74.91 37.211 74.91 37.055 74.899 c 37.043 74.899 l 
36.961 74.899 36.875 74.887 36.793 74.887 c 36.793 74.887 l 36.539 
74.875 36.277 74.875 36.023 74.875 c 36.023 74.875 l 35.773 74.875 
35.508 74.875 35.258 74.887 c 35.258 74.887 l 35.172 74.887 35.074 
74.899 34.992 74.899 c 34.992 74.899 l 34.824 74.899 34.668 74.91 34.5 
74.922 c 34.5 74.922 l 33.863 74.957 33.238 75.008 32.605 75.078 c 
32.605 75.078 l 32.062 75.137 31.523 75.211 30.984 75.293 c 30.938 
75.305 30.875 75.305 30.828 75.317 c 30.602 75.356 30.371 75.403 30.145 
75.438 c 30.145 75.438 l 29.93 75.473 29.723 75.524 29.508 75.57 c 
29.508 75.57 l 23.305 76.891 17.785 80.059 13.547 84.473 c 13.547 
84.473 l 13.309 84.727 13.066 84.977 12.84 85.242 c 12.719 85.313 l 
12.504 85.555 12.289 85.805 12.07 86.059 c 12.035 86.106 l 11.578 
86.645 11.148 87.211 10.738 87.774 c 10.703 87.809 l 10.285 88.387 
9.887 88.973 9.516 89.586 c 9.516 89.598 9.504 89.598 9.504 89.61 c 
8.461 91.278 7.586 93.055 6.875 94.891 c 6.863 94.914 6.863 94.938 
6.852 94.961 c 6.742 95.238 6.637 95.528 6.539 95.801 c 6.527 95.84 
6.516 95.863 6.504 95.899 c 6.301 96.5 6.109 97.11 5.941 97.723 c 5.914 
97.793 5.902 97.856 5.879 97.926 c 5.82 98.168 5.746 98.406 5.699 
98.645 c 5.676 98.719 5.664 98.801 5.641 98.875 c 5.555 99.199 5.484 
99.535 5.426 99.86 c 5.41 99.895 5.41 99.93 5.398 99.965 c 5.398 99.965 
l 5.004 101.981 4.801 104.035 4.801 106.086 c 4.801 118.328 11.855 
128.922 22.117 134.035 c 22.117 134.035 l 22.117 134.035 l 23.27 134.61 
24.445 135.102 25.656 135.524 c 25.668 135.524 l 25.668 135.524 l 
25.859 135.594 26.051 135.653 26.242 135.715 c 26.242 135.715 l 26.258 
135.715 l 26.27 135.715 l 26.52 135.797 26.762 135.871 27.012 135.953 c 
27.023 135.953 l 27.527 136.11 28.043 136.242 28.559 136.375 c 28.559 
136.375 l 29.316 136.555 30.07 136.711 30.84 136.844 c 30.84 136.844 l 
31.105 136.891 31.367 136.926 31.633 136.961 c 31.633 136.961 l 31.895 
137 32.16 137.035 32.426 137.059 c 32.426 137.059 l 32.688 137.094 
32.965 137.117 33.227 137.141 c 33.227 137.141 l 33.301 137.141 l 
34.848 137.274 36.395 137.285 37.945 137.192 c 37.945 137.192 l 38.039 
137.18 l 38.039 137.18 l 38.23 137.168 38.438 137.153 38.629 137.129 c 
38.629 137.129 l 38.652 137.129 38.676 137.129 38.699 137.117 c 38.699 
137.117 l 38.965 137.094 39.238 137.07 39.504 137.035 c 39.504 137.035 
l 39.77 137 40.031 136.973 40.297 136.938 c 40.297 136.938 l 40.559 
136.903 40.824 136.867 41.09 136.817 c 41.09 136.817 l 41.352 136.77 
41.617 136.723 41.867 136.676 c 41.867 136.676 l 41.941 136.664 l 
42.422 136.567 42.898 136.457 43.367 136.352 c 43.367 136.352 l 43.621 
136.289 43.883 136.219 44.137 136.16 c 44.148 136.16 l 44.902 135.942 l 
44.914 135.942 l 45.18 135.86 45.445 135.785 45.695 135.703 c 45.695 
135.703 l 45.887 135.641 46.078 135.57 46.273 135.512 c 46.273 135.512 
l 46.297 135.5 l 47.496 135.078 48.684 134.574 49.824 134.012 c 49.824 
134.012 l 49.848 134 l 49.848 134 l 60.156 128.899 67.199 118.313 
67.199 106.074 c 67.199 92.778 58.883 81.438 47.172 76.938 c 47.172 
76.938 l h
47.172 76.938 m f
1 g
36 75.75 m 32.004 75.75 28.117 76.52 24.457 78.031 c 24.574 77.672 
24.695 77.297 24.828 76.938 c 24.84 76.938 24.852 76.926 24.863 76.926 
c 24.984 76.879 25.117 76.832 25.234 76.781 c 25.414 76.711 l 25.547 
76.664 25.668 76.613 25.801 76.578 c 25.859 76.555 25.922 76.543 25.98 
76.52 c 26.113 76.469 26.258 76.434 26.387 76.387 c 26.438 76.375 
26.496 76.352 26.543 76.34 c 26.688 76.289 26.832 76.242 26.977 76.207 
c 27.023 76.195 27.059 76.184 27.109 76.172 c 27.266 76.121 27.434 
76.074 27.59 76.039 c 27.625 76.028 27.648 76.016 27.684 76.016 c 
27.863 75.965 28.031 75.918 28.211 75.871 c 28.234 75.871 28.246 75.86 
28.273 75.86 c 28.465 75.809 28.656 75.762 28.836 75.715 c 28.859 
75.715 l 29.051 75.668 29.258 75.617 29.449 75.582 c 29.484 75.57 l 
29.543 75.559 l 30.086 75.449 l 30.133 75.438 30.191 75.426 30.238 
75.426 c 30.254 75.426 30.277 75.414 30.289 75.414 c 30.938 75.305 l 
31.031 75.293 l 31.176 75.27 31.332 75.246 31.477 75.223 c 31.57 75.211 
31.68 75.199 31.777 75.176 c 31.922 75.149 32.051 75.137 32.195 75.113 
c 32.242 75.113 l 32.34 75.102 32.449 75.09 32.543 75.078 c 32.941 
75.043 l 33.07 75.031 33.191 75.02 33.324 75.008 c 33.445 74.996 33.562 
74.981 33.695 74.969 c 33.84 74.957 33.973 74.945 34.117 74.945 c 
34.223 74.934 34.344 74.934 34.453 74.922 c 34.621 74.91 34.777 74.91 
34.945 74.899 c 35.027 74.899 35.125 74.887 35.207 74.887 c 35.723 
74.875 36.238 74.875 36.758 74.887 c 36.84 74.887 36.926 74.899 37.008 
74.899 c 37.176 74.899 37.344 74.91 37.512 74.922 c 37.621 74.922 
37.727 74.934 37.836 74.945 c 37.98 74.957 38.125 74.957 38.27 74.969 c 
38.387 74.981 38.508 74.996 38.629 74.996 c 38.762 75.008 38.879 75.02 
39.012 75.031 c 39.145 75.043 39.277 75.055 39.395 75.067 c 39.516 
75.078 39.625 75.09 39.742 75.102 c 39.887 75.113 40.02 75.137 40.164 
75.149 c 40.223 75.164 40.273 75.164 40.332 75.176 c 40.379 75.188 
40.43 75.188 40.477 75.199 c 40.621 75.223 40.777 75.246 40.922 75.27 c 
41.004 75.281 41.102 75.293 41.184 75.317 c 41.34 75.344 41.508 75.379 
41.664 75.403 c 41.734 75.414 41.809 75.426 41.867 75.438 c 42.047 
75.473 42.215 75.512 42.395 75.547 c 42.434 75.559 42.469 75.559 42.504 
75.57 c 43.297 75.738 44.074 75.942 44.855 76.172 c 45.625 76.399 
46.367 76.649 47.113 76.938 c 47.125 76.938 l 47.125 76.938 47.305 
77.406 47.496 78.031 c 43.883 76.52 39.996 75.75 36 75.75 c 36 75.75 l 
h
8.062 94.278 m 7.199 96.317 6.562 98.43 6.168 100.613 c 5.711 100.242 
5.41 99.977 5.398 99.965 c 5.41 99.93 5.41 99.895 5.426 99.86 c 5.426 
99.848 5.426 99.836 5.438 99.82 c 5.449 99.785 l 5.508 99.485 5.578 
99.176 5.652 98.875 c 5.676 98.801 5.688 98.719 5.711 98.645 c 5.891 
97.926 l 5.914 97.856 5.93 97.793 5.953 97.723 c 6.121 97.11 6.312 96.5 
6.516 95.899 c 6.527 95.863 6.539 95.84 6.551 95.801 c 6.648 95.516 
6.758 95.238 6.863 94.961 c 6.887 94.891 l 7.332 93.727 7.859 92.586 
8.438 91.481 c 8.773 90.848 9.133 90.223 9.516 89.61 c 9.527 89.586 l 
9.91 88.961 10.32 88.363 10.754 87.774 c 11.172 87.199 11.605 86.645 
12.047 86.106 c 12.086 86.059 l 12.301 85.805 12.516 85.555 12.73 
85.313 c 12.793 85.242 l 13.02 84.977 13.262 84.727 13.5 84.473 c 13.5 
84.473 l 13.5 84.473 13.883 84.582 14.449 84.762 c 11.711 87.524 9.562 
90.715 8.062 94.278 c 8.062 94.278 l h
21.457 133.676 m 20.664 133.242 l 20.594 133.207 l 20.387 133.098 
20.195 132.977 19.992 132.86 c 19.957 132.836 19.906 132.809 19.871 
132.785 c 19.656 132.653 19.453 132.524 19.246 132.391 c 19.211 132.367 
19.188 132.356 19.164 132.332 c 18.973 132.211 18.781 132.078 18.59 
131.945 c 18.562 131.934 18.539 131.91 18.504 131.899 c 18.301 131.754 
18.086 131.61 17.879 131.465 c 17.844 131.442 17.82 131.418 17.797 
131.406 c 17.594 131.262 17.387 131.106 17.184 130.949 c 16.535 130.457 
15.898 129.942 15.301 129.403 c 15.254 129.356 l 14.844 128.996 14.449 
128.621 14.062 128.238 c 10.152 124.363 7.262 119.453 5.832 113.945 c 
5.832 113.945 6.098 113.418 6.457 112.817 c 6.852 114.547 7.391 116.25 
8.09 117.883 c 9.613 121.496 11.797 124.735 14.594 127.52 c 17.375 
130.301 20.617 132.485 24.227 134.024 c 27.938 135.594 31.906 136.399 
36 136.399 c 40.094 136.399 44.062 135.594 47.797 134.012 c 51.406 
132.485 54.648 130.301 57.434 127.508 c 60.215 124.723 62.398 121.481 
63.938 117.871 c 64.633 116.238 65.172 114.535 65.566 112.805 c 65.93 
113.406 66.191 113.934 66.191 113.934 c 64.766 119.43 61.871 124.34 
57.961 128.215 c 57.938 128.238 l 57.168 128.996 56.363 129.715 55.523 
130.399 c 55.441 130.457 l 55.234 130.613 55.031 130.781 54.828 130.938 
c 54.816 130.949 l 54.613 131.106 54.422 131.25 54.215 131.395 c 54.18 
131.418 54.156 131.442 54.121 131.465 c 53.508 131.899 l 53.484 131.922 
53.449 131.934 53.426 131.957 c 53.23 132.09 53.039 132.211 52.848 
132.344 c 52.812 132.367 52.789 132.379 52.754 132.403 c 52.547 132.535 
52.332 132.668 52.129 132.797 c 52.094 132.82 52.043 132.848 52.008 
132.871 c 51.816 132.988 51.613 133.098 51.422 133.219 c 51.348 133.254 
l 50.699 133.613 l 50.652 133.637 50.605 133.664 50.555 133.699 c 50.34 
133.817 50.125 133.926 49.895 134.035 c 49.859 134.047 l 48.73 134.61 
47.555 135.102 46.367 135.524 c 46.332 135.535 l 46.309 135.547 l 
46.117 135.617 45.926 135.68 45.73 135.738 c 45.695 135.75 l 45.445 
135.836 45.191 135.906 44.953 135.988 c 44.941 135.988 l 44.184 136.207 
l 44.172 136.207 l 43.922 136.278 43.656 136.34 43.402 136.399 c 43.402 
136.399 l 43.141 136.457 42.887 136.52 42.625 136.578 c 42.551 136.59 l 
42.359 136.625 42.168 136.676 41.965 136.711 c 41.891 136.723 l 41.629 
136.77 41.375 136.817 41.113 136.867 c 41.113 136.867 l 40.848 136.914 
40.586 136.949 40.32 136.985 c 40.32 136.985 l 39.793 137.059 39.254 
137.117 38.723 137.168 c 38.699 137.168 38.676 137.168 38.641 137.18 c 
38.41 137.203 38.184 137.215 37.945 137.227 c 37.738 137.238 37.535 
137.25 37.344 137.262 c 37.297 137.262 l 36.852 137.285 36.422 137.285 
35.977 137.285 c 35.531 137.285 35.102 137.274 34.656 137.262 c 34.621 
137.262 l 34.609 137.262 l 34.367 137.25 34.141 137.238 33.898 137.227 
c 33.695 137.215 33.504 137.203 33.301 137.18 c 33.227 137.168 l 32.965 
137.141 32.688 137.117 32.426 137.082 c 32.16 137.047 31.895 137.024 
31.633 136.985 c 31.633 136.985 l 31.367 136.949 31.105 136.914 30.84 
136.867 c 30.84 136.867 l 30.336 136.781 29.832 136.688 29.34 136.578 c 
29.074 136.52 28.812 136.457 28.559 136.399 c 28.559 136.399 l 28.309 
136.34 28.043 136.266 27.793 136.195 c 27.781 136.195 l 27.023 135.977 
l 27.012 135.977 l 26.762 135.906 26.508 135.82 26.27 135.738 c 26.242 
135.727 l 26.039 135.668 25.848 135.594 25.645 135.524 c 25.621 135.512 
l 24.422 135.09 23.242 134.598 22.117 134.024 c 22.117 134.024 l 22.105 
134.024 l 21.887 133.903 21.672 133.781 21.457 133.676 c 21.457 133.676 
l h
57.445 84.641 m 57.793 84.535 58.008 84.473 58.008 84.473 c 60.312 
86.684 61.477 88.445 62.977 91.278 c 64.477 94.11 65.438 96.524 66.098 
99.953 c 66.098 99.953 65.965 100.063 65.746 100.254 c 65.352 98.203 
64.738 96.199 63.926 94.278 c 62.41 90.668 60.227 87.426 57.445 84.641 
c 57.445 84.641 l h
57.445 84.641 m f
35.219 74.887 m 35.137 74.887 35.039 74.899 34.957 74.899 c 35.051 
74.899 35.137 74.887 35.219 74.887 c h
37.031 74.899 m 36.949 74.899 36.863 74.887 36.781 74.887 c 36.863 
74.887 36.949 74.899 37.031 74.899 c h
37.859 74.934 m 37.754 74.922 37.645 74.922 37.535 74.91 c 37.645 
74.922 37.754 74.934 37.859 74.934 c h
5.676 106.074 m 5.676 108.367 5.93 110.621 6.422 112.805 c 6.059 
113.406 5.797 113.934 5.797 113.934 c 7.223 119.43 10.117 124.34 14.027 
128.227 c 14.039 128.238 l 14.426 128.61 14.809 128.981 15.215 129.344 
c 15.266 129.391 l 15.684 129.762 16.105 130.11 16.535 130.457 c 16.738 
130.625 16.945 130.781 17.148 130.938 c 17.16 130.949 l 17.363 131.106 
17.566 131.25 17.773 131.395 c 17.797 131.418 17.832 131.442 17.855 
131.453 c 18.059 131.598 18.266 131.742 18.48 131.887 c 18.504 131.899 
18.527 131.922 18.562 131.934 c 18.758 132.067 18.949 132.188 19.141 
132.317 c 19.176 132.344 19.199 132.356 19.223 132.379 c 19.43 132.512 
19.645 132.641 19.848 132.774 c 19.883 132.797 19.934 132.82 19.969 
132.848 c 20.16 132.965 20.363 133.074 20.566 133.195 c 20.641 133.231 
l 21.434 133.664 l 21.648 133.781 21.875 133.891 22.094 134 c 22.105 
134 l 11.855 128.91 4.801 118.313 4.801 106.074 c 4.801 103.973 5.004 
101.934 5.398 99.953 c 5.41 99.965 5.711 100.231 6.168 100.602 c 5.844 
102.414 5.676 104.238 5.676 106.074 c h
8.074 92.153 m 8.074 92.153 l h
5.438 99.809 m 5.438 99.82 5.438 99.836 5.426 99.848 c 5.496 99.512 
5.566 99.188 5.641 98.863 c 5.566 99.164 5.496 99.473 5.438 99.774 c 
5.438 99.809 l h
28.848 75.703 m 28.656 75.75 28.465 75.797 28.285 75.848 c 28.262 
75.848 28.246 75.86 28.223 75.86 c 28.043 75.906 27.875 75.953 27.695 
76.004 c 27.66 76.016 27.637 76.028 27.602 76.028 c 27.445 76.074 
27.277 76.121 27.121 76.16 c 27.07 76.172 27.035 76.184 26.988 76.195 c 
26.844 76.242 26.699 76.278 26.555 76.328 c 26.508 76.34 26.449 76.363 
26.398 76.375 c 26.27 76.422 26.125 76.457 25.992 76.508 c 25.934 
76.531 25.871 76.543 25.812 76.567 c 25.68 76.613 25.547 76.649 25.43 
76.699 c 25.246 76.77 l 25.129 76.817 24.996 76.867 24.875 76.914 c 
24.863 76.914 24.852 76.926 24.84 76.926 c 24.84 76.938 24.66 77.395 
24.469 78.02 c 24.383 78.055 24.301 78.09 24.203 78.125 c 20.594 79.649 
17.352 81.836 14.566 84.617 c 14.449 84.738 l 13.895 84.57 13.512 
84.449 13.5 84.449 c 17.734 80.035 23.258 76.867 29.461 75.547 c 29.258 
75.594 29.062 75.629 28.871 75.68 c 28.859 75.703 28.859 75.703 28.848 
75.703 c 28.848 75.703 l h
25.656 135.512 m 25.645 135.512 25.633 135.5 25.633 135.5 c 25.656 
135.512 l h
34.02 137.203 m 34.633 137.238 l 34.645 137.238 l 33.926 137.203 l 
34.02 137.203 l h
29.496 75.559 m 29.699 75.524 29.891 75.473 30.098 75.438 c 29.555 
75.547 l 29.496 75.559 l h
29.41 136.567 m 29.605 136.613 29.809 136.649 30 136.688 c 30.023 
136.688 30.047 136.699 30.059 136.699 c 29.855 136.664 29.641 136.613 
29.41 136.567 c h
42.434 75.547 m 42.254 75.512 42.086 75.473 41.902 75.438 c 41.832 
75.426 41.762 75.414 41.699 75.403 c 41.543 75.379 41.375 75.344 41.219 
75.317 c 41.137 75.305 41.039 75.281 40.957 75.27 c 41.496 75.356 
42.023 75.449 42.551 75.57 c 42.516 75.559 42.469 75.559 42.434 75.547 
c 42.434 75.547 l h
39.781 75.102 m 40.355 75.176 l 40.297 75.164 40.246 75.164 40.188 
75.149 c 40.055 75.137 39.926 75.125 39.781 75.102 c 39.781 75.102 l h
37.32 137.238 m 37.367 137.238 l 37.57 137.227 37.777 137.215 37.969 
137.203 c 37.32 137.25 36.66 137.274 36 137.274 c 35.555 137.274 35.125 
137.262 34.68 137.25 c 35.113 137.274 35.555 137.274 36 137.274 c 
36.445 137.262 36.887 137.262 37.32 137.238 c h
49.895 134.012 m 50.113 133.903 50.34 133.781 50.555 133.676 c 50.699 
133.59 l 50.914 133.469 51.133 133.363 51.348 133.231 c 51.422 133.195 
l 51.625 133.086 51.816 132.965 52.008 132.848 c 52.043 132.82 52.094 
132.797 52.129 132.774 c 52.344 132.641 52.547 132.524 52.754 132.379 c 
52.789 132.356 52.812 132.344 52.848 132.317 c 53.039 132.199 53.23 
132.067 53.426 131.934 c 53.449 131.91 53.484 131.899 53.508 131.875 c 
54.121 131.442 l 54.156 131.418 54.18 131.395 54.215 131.371 c 54.422 
131.227 54.625 131.082 54.816 130.926 c 54.828 130.914 l 55.031 130.758 
55.234 130.602 55.441 130.434 c 55.523 130.375 l 55.934 130.051 56.328 
129.715 56.711 129.367 c 56.773 129.317 l 57.168 128.957 57.562 128.598 
57.938 128.215 c 57.961 128.192 l 61.871 124.313 64.766 119.406 66.191 
113.91 c 66.191 113.91 65.93 113.383 65.566 112.781 c 66.059 110.586 
66.312 108.332 66.312 106.051 c 66.312 104.07 66.121 102.125 65.746 
100.231 c 65.867 100.133 65.977 100.039 66.098 99.93 c 65.438 96.5 
64.477 94.086 62.977 91.254 c 61.477 88.422 60.312 86.66 58.008 84.449 
c 58.008 84.449 57.793 84.512 57.445 84.617 c 57.434 84.606 l 54.648 
81.82 51.406 79.637 47.797 78.102 c 47.711 78.067 47.629 78.031 47.531 
77.996 c 47.41 77.621 47.293 77.262 47.16 76.903 c 58.883 81.438 67.199 
92.778 67.199 106.074 c 67.199 118.301 60.156 128.899 49.895 134.012 c 
h
33.707 74.957 m 33.59 74.969 33.457 74.981 33.336 74.996 c 33.203 
75.008 33.086 75.02 32.953 75.031 c 32.555 75.067 l 33.18 74.996 33.816 
74.945 34.453 74.91 c 34.344 74.91 34.223 74.922 34.117 74.934 c 33.984 
74.945 33.852 74.957 33.707 74.957 c 33.707 74.957 l h
31.801 75.164 m 31.703 75.176 31.598 75.188 31.5 75.211 c 31.344 75.235 
31.199 75.258 31.055 75.281 c 30.961 75.293 l 31.391 75.223 31.836 
75.164 32.281 75.102 c 32.23 75.102 l 32.074 75.125 31.945 75.137 
31.801 75.164 c h
38.664 74.996 m 38.543 74.981 38.426 74.969 38.305 74.969 c 38.555 
74.996 38.797 75.008 39.047 75.031 c 38.914 75.02 38.785 75.008 38.664 
74.996 c 38.664 74.996 l h
30.254 75.414 m 30.266 75.414 30.289 75.403 30.301 75.403 c 30.289 
75.403 30.266 75.403 30.254 75.414 c h
42.648 136.555 m 42.625 136.555 42.602 136.567 42.574 136.567 c 42.648 
136.555 l h
49.871 134.024 m 48.73 134.586 47.555 135.09 46.344 135.512 c 46.379 
135.5 l 47.566 135.078 48.73 134.586 49.871 134.024 c h
49.871 134.024 m f
0.0313726 0.101961 0.0901961 rg
45.637 106.074 m 45.637 103.418 41.32 101.262 36 101.262 c 30.68 
101.262 26.363 103.418 26.363 106.074 c 26.363 108.731 30.68 110.887 36 
110.887 c 41.32 110.887 45.637 108.731 45.637 106.074 c h
45.637 106.074 m f
0 g
120.625 1.067 m 113.988 1.067 110.602 3.528 110.602 8.352 c 110.602 
11.785 l 99.906 9.371 85.523 8.004 70.812 8.004 c 57.242 8.004 44.809 
9.164 35.551 11.32 c 35.551 8.352 l 35.551 3.528 32.188 1.067 25.527 
1.067 c 18.895 1.067 15.504 3.528 15.504 8.352 c 15.504 34.195 l 13.953 
37.281 13.047 39.531 12.859 40.926 c 12.094 46.121 17.246 58.813 19.078 
63.129 c 18.266 63.129 l 18.266 63.129 16.992 63.082 15.297 63.082 c 
7.805 63.082 6.387 64.008 5.902 64.309 c 5.09 64.844 4.602 65.863 4.508 
67.164 c 4.414 68.395 4.719 70.133 5.785 71.063 c 7.457 72.5 12.164 
73.543 15.25 73.543 c 16.875 73.543 18.082 73.266 18.848 72.731 c 
19.844 72.035 20.285 70.621 20.121 68.465 c 20.191 68.465 l 20.238 
68.766 20.562 70.457 20.562 70.457 c 20.887 71.965 l 20.98 72.406 
21.098 72.871 21.211 73.336 c 21.375 73.938 21.539 74.567 21.699 75.168 
c 21.699 75.168 22.094 76.488 22.258 76.93 c 22.371 77.278 l 22.559 
77.836 22.766 78.395 23 78.926 c 23.207 79.438 23.441 79.969 23.672 
80.457 c 23.859 80.852 l 24.066 81.27 24.297 81.664 24.531 82.082 c 
24.926 82.754 25.227 83.172 25.551 83.567 c 25.781 83.844 l 26.039 
84.145 26.316 84.426 26.57 84.68 c 26.664 84.774 26.781 84.867 26.898 
84.957 c 27.199 85.215 27.594 85.539 28.078 85.77 c 36.781 90.34 55.199 
93.309 75.082 93.309 c 94.617 93.309 110.719 90.481 118.121 85.699 c 
118.469 85.492 118.816 85.192 119.211 84.82 c 119.418 84.61 l 119.742 
84.285 119.977 83.985 120.23 83.684 c 120.438 83.426 l 120.742 83.008 
121.02 82.57 121.273 82.129 c 121.621 81.524 121.832 81.106 122.039 
80.668 c 122.203 80.317 l 122.434 79.832 122.645 79.344 122.852 78.832 
c 123.105 78.254 123.293 77.695 123.5 77.141 c 123.617 76.77 l 123.781 
76.328 123.918 75.887 124.059 75.422 c 124.176 75.028 l 124.336 74.496 
124.707 73.102 124.707 73.102 c 124.824 72.664 125.172 71.223 125.172 
71.223 c 125.359 70.457 l 125.52 69.762 125.66 69.113 125.773 68.485 c 
125.961 68.485 l 125.82 70.645 126.238 72.059 127.238 72.754 c 128.004 
73.289 129.207 73.567 130.832 73.567 c 133.918 73.567 138.629 72.5 
140.297 71.086 c 141.367 70.156 141.668 68.395 141.574 67.188 c 141.48 
65.863 140.996 64.844 140.184 64.332 c 139.719 64.031 138.281 63.106 
130.785 63.106 c 130.785 63.106 l 129.047 63.106 127.77 63.149 127.77 
63.149 c 127.027 63.149 l 128.836 58.906 134.012 46.168 133.246 40.949 
c 133.035 39.555 132.156 37.281 130.578 34.219 c 130.578 8.375 l 
130.625 3.504 127.262 1.067 120.625 1.067 c 120.625 1.067 l h
120.625 1.067 m f
75.082 92.242 m 92.574 92.242 109.652 89.899 117.562 84.797 c 117.887 
84.586 118.188 84.332 118.492 84.055 c 118.582 83.985 118.652 83.891 
118.746 83.797 c 118.977 83.543 119.211 83.289 119.418 83.008 c 119.488 
82.942 119.535 82.871 119.605 82.778 c 119.883 82.383 120.137 81.988 
120.395 81.57 c 120.438 81.524 120.461 81.453 120.508 81.387 c 120.742 
80.992 120.949 80.598 121.137 80.18 c 121.18 80.063 121.25 79.969 
121.297 79.856 c 121.508 79.391 121.715 78.926 121.926 78.414 c 121.926 
78.395 121.945 78.371 121.945 78.371 c 122.156 77.836 122.363 77.301 
122.551 76.77 c 122.598 76.653 122.621 76.535 122.668 76.422 c 122.805 
75.981 122.969 75.563 123.086 75.121 c 123.129 74.981 123.176 74.867 
123.199 74.727 c 123.363 74.215 123.5 73.684 123.641 73.149 c 123.664 
73.035 123.711 72.918 123.734 72.778 c 123.828 72.383 123.941 72.012 
124.035 71.617 c 124.082 71.41 124.152 71.176 124.199 70.969 c 124.266 
70.715 124.312 70.457 124.383 70.203 c 124.594 69.274 124.777 68.348 
124.965 67.395 c 127.191 67.395 l 126.934 69.184 126.91 71.153 127.91 
71.852 c 128.535 72.293 129.625 72.477 130.902 72.477 c 134.035 72.477 
138.328 71.387 139.695 70.25 c 140.832 69.25 141.02 66.028 139.695 
65.168 c 138.305 64.266 133.895 64.102 130.879 64.102 c 129.164 64.102 
127.91 64.149 127.91 64.149 c 125.52 64.149 l 125.52 64.102 l 125.52 
64.102 133.152 47.004 132.27 41.039 c 132.039 39.442 130.762 36.68 
129.602 34.406 c 129.602 8.305 l 129.602 3.363 125.59 2.086 120.648 
2.086 c 115.707 2.086 111.691 3.363 111.691 8.305 c 111.691 13.086 l 
100.672 10.442 85.641 9.024 70.859 9.024 c 57.473 9.024 44.32 10.184 
34.555 12.621 c 34.555 8.305 l 34.555 3.363 30.539 2.086 25.598 2.086 c 
20.656 2.086 16.641 3.363 16.641 8.305 c 16.641 34.453 l 15.48 36.727 
14.207 39.485 13.973 41.086 c 13.117 47.028 20.727 64.149 20.727 64.149 
c 20.727 64.195 l 18.289 64.195 l 18.289 64.195 17.035 64.149 15.32 
64.149 c 12.305 64.149 7.895 64.309 6.504 65.215 c 5.18 66.074 5.367 
69.297 6.504 70.297 c 7.848 71.434 12.141 72.524 15.273 72.524 c 16.551 
72.524 17.664 72.336 18.266 71.899 c 19.266 71.199 19.242 69.207 18.984 
67.442 c 21.121 67.442 l 21.121 67.442 l 21.211 67.977 21.305 68.578 
21.422 69.207 c 21.445 69.344 21.469 69.461 21.492 69.602 c 21.539 
69.809 21.586 70.039 21.629 70.274 c 21.676 70.551 21.746 70.828 21.816 
71.11 c 21.957 71.735 l 22.047 72.176 22.164 72.617 22.281 73.078 c 
22.305 73.149 22.305 73.219 22.328 73.289 c 22.465 73.82 22.605 74.356 
22.766 74.891 c 22.812 75.028 22.836 75.168 22.883 75.309 c 23.023 
75.746 23.16 76.188 23.301 76.606 c 23.348 76.723 23.371 76.84 23.418 
76.953 c 23.602 77.488 23.789 78.02 24.02 78.531 c 24.043 78.578 24.066 
78.625 24.066 78.672 c 24.254 79.137 24.461 79.574 24.668 80.016 c 
24.738 80.133 24.785 80.25 24.855 80.363 c 25.039 80.758 25.273 81.153 
25.48 81.524 c 25.527 81.594 25.551 81.664 25.598 81.735 c 25.852 
82.129 26.109 82.524 26.41 82.895 c 26.48 82.985 26.547 83.055 26.617 
83.125 c 26.852 83.379 27.082 83.637 27.312 83.867 c 27.406 83.961 27.5 
84.031 27.57 84.102 c 27.895 84.379 28.219 84.61 28.566 84.797 c 37.684 
89.621 56.617 92.242 75.082 92.242 c 75.082 94.356 m 75.082 92.242 l 
75.082 94.356 l 55.039 94.356 36.41 91.34 27.617 86.676 c 27.082 86.399 
26.617 86.028 26.27 85.746 c 26.156 85.653 26.039 85.539 25.922 85.422 
c 25.621 85.145 25.32 84.82 25.062 84.516 c 24.949 84.379 24.855 84.285 
24.785 84.192 c 24.438 83.75 24.137 83.313 23.836 82.848 c 23.812 
82.824 l 23.719 82.684 l 23.465 82.242 23.207 81.805 22.977 81.34 c 
22.836 81.082 l 22.836 81.082 l 22.766 80.945 l 22.535 80.457 22.328 
79.992 22.117 79.485 c 22.094 79.414 22.047 79.344 22.023 79.274 c 
21.84 78.809 21.629 78.231 21.422 77.649 c 21.281 77.235 l 20.863 75.91 
l 20.75 75.563 l 20.262 73.82 l 20.215 73.66 l 20.168 73.473 20.121 
73.266 20.074 73.078 c 19.891 73.289 19.68 73.473 19.449 73.637 c 18.5 
74.309 17.129 74.633 15.25 74.633 c 11.91 74.633 7.016 73.52 5.113 
71.899 c 3.742 70.715 3.371 68.578 3.465 67.117 c 3.582 65.469 4.23 
64.149 5.344 63.453 c 5.926 63.059 7.5 62.035 15.297 62.035 c 16.18 
62.035 16.922 62.035 17.477 62.059 c 15.273 56.676 11.121 45.75 11.84 
40.762 c 12.047 39.278 12.93 37.051 14.484 33.942 c 14.484 8.352 l 
14.484 4.547 16.41 0.024 25.551 0.024 c 34.691 0.024 36.617 4.547 
36.617 8.352 c 36.617 10 l 45.805 8.028 57.801 6.938 70.812 6.938 c 
85.012 6.938 98.934 8.211 109.535 10.465 c 109.535 8.328 l 109.535 
4.524 111.461 0 120.602 0 c 129.742 0 131.668 4.524 131.668 8.328 c 
131.668 33.942 l 133.223 37.028 134.105 39.278 134.312 40.762 c 135.031 
45.75 130.879 56.676 128.652 62.035 c 129.188 62.012 129.953 62.012 
130.832 62.012 c 138.629 62.012 140.207 63.035 140.785 63.43 c 141.875 
64.149 142.527 65.445 142.641 67.094 c 142.734 68.555 142.363 70.692 
141.02 71.875 c 139.094 73.52 134.195 74.633 130.855 74.633 c 128.977 
74.633 127.609 74.309 126.633 73.637 c 126.332 73.43 126.078 73.172 
125.867 72.895 c 125.82 73.055 125.797 73.195 125.754 73.36 c 125.66 
73.731 l 125.52 74.262 125.359 74.82 125.195 75.352 c 125.148 75.492 
125.102 75.656 125.055 75.793 c 124.941 76.235 124.777 76.676 124.613 
77.141 c 124.57 77.278 124.523 77.418 124.477 77.582 c 124.289 78.113 
124.082 78.672 123.848 79.227 c 123.828 79.297 l 123.805 79.32 l 
123.594 79.832 123.387 80.317 123.152 80.805 c 123.086 80.945 123.016 
81.106 122.945 81.246 c 122.734 81.664 122.527 82.082 122.297 82.5 c 
122.273 82.547 122.203 82.684 122.109 82.801 c 121.855 83.242 121.574 
83.66 121.273 84.078 c 121.203 84.168 121.137 84.238 121.09 84.332 c 
120.789 84.703 120.531 85.028 120.254 85.305 c 120.066 85.492 119.977 
85.61 119.859 85.699 c 119.512 86.047 119.094 86.375 118.676 86.653 c 
111.137 91.453 94.828 94.356 75.082 94.356 c h
75.082 94.356 m f
0.196078 0.392157 0.419608 rg
139.648 70.274 m 137.746 71.899 129.996 73.383 127.863 71.899 c 126.867 
71.199 126.891 69.207 127.145 67.442 c 124.918 67.442 l 123.941 72.57 
121.645 82.199 117.539 84.82 c 101.277 95.281 46.223 94.168 28.59 84.82 
c 24.137 82.453 21.977 72.641 21.121 67.442 c 18.984 67.442 l 19.242 
69.231 19.266 71.199 18.266 71.899 c 16.156 73.383 8.406 71.899 6.48 
70.274 c 5.344 69.274 5.16 66.051 6.48 65.192 c 8.66 63.778 18.266 
64.172 18.266 64.172 c 20.656 64.172 l 20.656 64.125 l 125.449 64.125 l 
125.449 64.172 l 127.84 64.172 l 127.84 64.172 137.445 63.778 139.625 
65.192 c 140.973 66.051 140.809 69.274 139.648 70.274 c 139.648 70.274 
l h
139.648 70.274 m f
0 g
34.508 8.352 m 34.508 3.41 30.492 2.133 25.551 2.133 c 20.609 2.133 
16.598 3.41 16.598 8.352 c 16.598 35.867 l 16.598 40.809 20.609 44.82 
25.551 44.82 c 30.492 44.82 34.508 40.809 34.508 35.867 c 34.508 8.352 
l h
129.578 8.352 m 129.578 3.41 125.566 2.133 120.625 2.133 c 115.684 
2.133 111.668 3.41 111.668 8.352 c 111.668 35.867 l 111.668 40.809 
115.684 44.82 120.625 44.82 c 125.566 44.82 129.578 40.809 129.578 
35.867 c 129.578 8.352 l h
129.578 8.352 m f
0.196078 0.392157 0.419608 rg
125.496 64.125 m 20.68 64.125 l 20.68 64.125 22.465 81.547 28.613 84.82 
c 46.223 94.168 101.301 95.281 117.562 84.82 c 123.246 81.176 125.496 
64.125 125.496 64.125 c h
125.496 64.125 m 20.68 64.125 l 20.68 64.125 13.047 47.028 13.93 41.063 
c 14.367 38 18.66 30.625 18.66 30.625 c 18.66 30.625 19.473 19.348 
23.418 16.891 c 41.188 5.848 103.41 6.985 122.758 16.891 c 127.074 
19.094 127.516 30.625 127.516 30.625 c 127.516 30.625 131.785 37.977 
132.246 41.063 c 133.129 47.004 125.496 64.125 125.496 64.125 c 125.496 
64.125 l h
125.496 64.125 m f
0 g
121.438 63.43 m 122.41 61.504 126.797 52.434 127.77 43.453 c 123.27 
42.852 96.867 39.395 73.043 39.395 c 49.215 39.395 22.812 42.852 18.312 
43.453 c 19.309 52.434 23.672 61.504 24.645 63.43 c 121.438 63.43 l 
121.855 64.125 m 24.23 64.125 l 24.23 64.125 18.5 53.383 17.547 42.852 
c 17.547 42.852 46.664 38.699 73.043 38.699 c 99.422 38.676 128.535 
42.852 128.535 42.852 c 127.586 53.383 121.855 64.125 121.855 64.125 c 
121.855 64.125 l h
121.855 64.125 m f
73.043 38.676 m 71.672 38.676 49.098 39.578 49.098 39.578 c 49.633 
25.797 73.043 26.403 73.043 26.403 c 73.043 26.403 96.473 25.797 96.984 
39.578 c 96.984 39.602 74.41 38.676 73.043 38.676 c h
73.043 38.676 m f
72.207 25.613 m 63.902 25.613 56.547 25.914 50.352 26.332 c 30.91 
27.633 18.707 30.278 18.566 30.301 c 18.707 30.973 l 18.824 30.949 
31.004 28.328 50.398 27.028 c 68.309 25.82 96.195 25.543 127.445 30.973 
c 127.562 30.278 l 107.055 26.727 87.98 25.613 72.207 25.613 c 72.207 
25.613 l h
72.207 25.613 m f
0.921569 0.854902 0.101961 rg
53.602 22.899 m 92.508 22.899 l 92.508 12.504 l 53.602 12.504 l 53.602 
22.899 l h
53.602 22.899 m f
0 g
17.547 42.852 m 17.547 42.852 17.059 37.492 20.68 33.547 c 20.68 33.547 
39.168 29.672 56.336 29.649 c 53.297 39.324 l 17.547 42.852 l 17.547 
42.852 l h
17.547 42.852 m f
0.921569 0.854902 0.101961 rg
45.828 35.426 m 45.828 37.723 43.949 39.602 41.652 39.602 c 39.355 
39.602 37.477 37.723 37.477 35.426 c 37.477 33.129 39.355 31.25 41.652 
31.25 c 43.973 31.227 45.828 33.106 45.828 35.426 c 45.828 35.426 l h
35.133 36.633 m 35.133 38.93 33.277 40.809 30.957 40.809 c 28.66 40.809 
26.781 38.93 26.781 36.633 c 26.781 34.336 28.66 32.457 30.957 32.457 c 
33.277 32.457 35.133 34.336 35.133 36.633 c 35.133 36.633 l h
24.23 38.813 m 24.23 40.137 23.16 41.203 21.84 41.203 c 21.84 41.203 l 
20.516 41.203 19.449 40.137 19.449 38.813 c 19.449 38.813 l 19.449 
37.492 20.516 36.422 21.84 36.422 c 21.84 36.422 l 23.16 36.422 24.23 
37.492 24.23 38.813 c 24.23 38.813 l h
73.043 38.676 m 74.758 38.676 l 73.898 31.992 l 73.043 26.426 l 72.184 
31.992 l 71.324 38.676 l 73.043 38.676 l h
73.043 38.676 m f
0 g
128.535 42.852 m 128.535 42.852 129.023 37.492 125.402 33.547 c 125.402 
33.547 106.914 29.672 89.746 29.649 c 92.785 39.324 l 128.535 42.852 l 
128.535 42.852 l h
128.535 42.852 m f
0.921569 0.854902 0.101961 rg
100.254 35.426 m 100.254 37.723 102.133 39.602 104.43 39.602 c 106.75 
39.602 108.605 37.723 108.605 35.426 c 108.605 33.129 106.727 31.25 
104.43 31.25 c 102.133 31.227 100.254 33.106 100.254 35.426 c 100.254 
35.426 l h
110.949 36.633 m 110.949 38.93 112.828 40.809 115.125 40.809 c 117.422 
40.809 119.301 38.93 119.301 36.633 c 119.301 34.336 117.422 32.457 
115.125 32.457 c 112.805 32.457 110.949 34.336 110.949 36.633 c 110.949 
36.633 l h
121.855 38.813 m 121.855 40.137 122.922 41.203 124.242 41.203 c 125.566 
41.203 126.633 40.137 126.633 38.813 c 126.633 37.492 125.566 36.422 
124.242 36.422 c 122.922 36.422 121.855 37.492 121.855 38.813 c 121.855 
38.813 l h
121.855 38.813 m f
70.723 26.516 m 70.027 26.403 l 68.125 38.742 l 68.82 38.86 l 70.723 
26.516 l h
67.684 26.75 m 66.988 26.656 l 65.176 38.742 l 65.871 38.836 l 67.684 
26.75 l h
64.551 27.168 m 63.855 27.074 l 62.066 39.254 l 62.766 39.348 l 64.551 
27.168 l h
61.348 27.84 m 60.652 27.746 l 59.027 39.254 l 59.727 39.348 l 61.348 
27.84 l h
58.172 28.836 m 57.473 28.746 l 56.012 39.231 l 56.707 39.324 l 58.172 
28.836 l h
54.945 30.695 m 54.25 30.602 l 52.973 39.254 l 53.668 39.348 l 54.945 
30.695 l h
51.465 33.824 m 50.77 33.735 l 49.934 39.442 l 50.629 39.531 l 51.465 
33.824 l h
51.465 33.824 m f
77.938 38.766 m 76.035 26.426 l 75.34 26.539 l 77.242 38.883 l 77.938 
38.766 l h
80.883 38.719 m 79.074 26.633 l 78.379 26.727 l 80.188 38.813 l 80.883 
38.719 l h
84.016 39.254 m 82.23 27.074 l 81.531 27.168 l 83.32 39.348 l 84.016 
39.254 l h
87.055 39.254 m 85.43 27.746 l 84.734 27.84 l 86.359 39.348 l 87.055 
39.254 l h
90.07 39.231 m 88.609 28.746 l 87.914 28.836 l 89.375 39.324 l 90.07 
39.231 l h
93.109 39.254 m 91.832 30.602 l 91.137 30.695 l 92.414 39.348 l 93.109 
39.254 l h
96.148 39.442 m 95.312 33.735 l 94.617 33.824 l 95.453 39.531 l 96.148 
39.442 l h
96.148 39.442 m f
0 g
73.48 26.078 m 73.043 26.078 l 72.625 26.078 l 70.977 26.078 65.199 
26.215 59.746 27.934 c 52.672 30.16 48.984 34.082 48.773 39.578 c 48.75 
39.949 l 49.121 39.926 l 49.355 39.926 71.578 39.024 73.043 39.024 c 
73.066 39.024 l 74.527 39.024 96.754 39.926 96.984 39.926 c 97.355 
39.949 l 97.332 39.578 l 97.125 34.082 93.434 30.16 86.359 27.934 c 
80.906 26.215 75.129 26.078 73.48 26.078 c h
73.043 26.774 m 73.48 26.774 l 75.105 26.774 80.789 26.91 86.148 28.606 
c 92.738 30.695 96.266 34.266 96.613 39.254 c 93.551 39.137 74.434 
38.348 73.043 38.348 c 73.02 38.699 l 73.02 38.348 l 71.625 38.348 
52.508 39.113 49.445 39.254 c 49.797 34.266 53.32 30.695 59.91 28.606 c 
65.27 26.91 70.953 26.774 72.578 26.774 c 73.043 26.774 l h
73.043 26.774 m f
115.66 82.66 m 112.828 84.473 108.352 86.004 102.738 87.141 c 101.695 
87.348 100.648 87.555 99.582 87.719 c 98.145 87.949 96.66 88.184 95.129 
88.367 c 93.039 88.625 90.883 88.856 88.609 89.02 c 84.363 89.344 
79.816 89.528 75.082 89.528 c 55.922 89.528 38.336 86.793 30.285 82.524 
c 27.688 81.153 25.32 71.133 24.23 64.125 c 121.855 64.125 l 120.695 
70.367 118.328 80.922 115.66 82.66 c 115.66 82.66 l h
115.66 82.66 m f
0.696 w
0 J
0 j
[] 0.0 d
10 M q 1 0 0 -1 0 142.074402 cm
48.727 102.125 m 48.727 102.125 71.465 93.191 97.332 102.496 c 25.551 
80.176 m 47.566 100.359 l 120.625 80.176 m 97.355 100.359 l S Q
0.670588 0 0 rg
210.578 103.367 m 210.422 105.477 209.969 106.836 209.141 108.039 c 
207.656 110.055 205.047 111.258 202.031 111.258 c 196.219 111.258 
192.422 106.633 192.422 99.445 c 192.422 92.477 196.141 88.055 202 
88.055 c 207.156 88.055 210.422 91.149 210.828 96.445 c 207.359 96.445 
l 206.781 92.977 205.016 91.242 202.078 91.242 c 198.281 91.242 196.016 
94.336 196.016 99.445 c 196.016 104.867 198.234 108.086 202 108.086 c 
204.891 108.086 206.703 106.383 207.109 103.367 c 210.578 103.367 l h
210.578 103.367 m f
218.961 119.102 m 218.961 89.008 l 222.383 89.008 l 222.383 100.945 l 
222.383 105.352 224.695 108.242 228.242 108.242 c 229.367 108.242 
230.477 107.867 231.305 107.258 c 232.289 106.555 232.711 105.524 
232.711 103.992 c 232.711 89.008 l 236.133 89.008 l 236.133 105.352 l 
236.133 108.992 233.539 111.258 229.32 111.258 c 226.273 111.258 
224.414 110.305 222.383 107.664 c 222.383 119.102 l 218.961 119.102 l h
218.961 119.102 m f
245.305 110.633 m 245.305 89.008 l 248.773 89.008 l 248.773 100.242 l 
248.773 103.336 249.555 105.352 251.211 106.555 c 252.289 107.336 
253.32 107.586 255.711 107.633 c 255.711 111.133 l 255.133 111.211 
254.852 111.258 254.398 111.258 c 252.164 111.258 250.477 109.93 
248.492 106.711 c 248.492 110.633 l 245.305 110.633 l h
245.305 110.633 m f
273.219 110.633 m 269.797 110.633 l 269.797 89.008 l 273.219 89.008 l 
273.219 110.633 l h
273.219 119.102 m 269.75 119.102 l 269.75 114.774 l 273.219 114.774 l 
273.219 119.102 l h
273.219 119.102 m f
306.41 104.617 m 306.379 108.867 303.566 111.258 298.566 111.258 c 
293.535 111.258 290.27 108.664 290.27 104.649 c 290.27 101.274 292.004 
99.664 297.129 98.414 c 300.348 97.633 l 302.738 97.055 303.691 96.195 
303.691 94.617 c 303.691 92.602 301.66 91.242 298.645 91.242 c 296.801 
91.242 295.223 91.774 294.363 92.68 c 293.816 93.305 293.582 93.914 
293.363 95.445 c 289.738 95.445 l 289.895 90.445 292.707 88.055 298.363 
88.055 c 303.816 88.055 307.285 90.742 307.285 94.914 c 307.285 98.133 
305.457 99.899 301.176 100.945 c 297.863 101.727 l 295.066 102.383 
293.863 103.289 293.863 104.82 c 293.863 106.805 295.645 108.086 
298.441 108.086 c 301.207 108.086 302.691 106.883 302.785 104.617 c 
306.41 104.617 l h
306.41 104.617 m f
0 g
177.578 59.246 m 176.641 64.371 173.703 66.871 168.578 66.871 c 165.453 
66.871 162.922 65.871 161.188 63.949 c 159.078 61.653 157.922 58.324 
157.922 54.543 c 157.922 50.699 159.109 47.403 161.312 45.137 c 163.109 
43.278 165.422 42.418 168.453 42.418 c 174.156 42.418 177.344 45.496 
178.047 51.668 c 174.984 51.668 l 174.734 50.059 174.406 48.981 173.922 
48.043 c 172.969 46.121 170.984 45.043 168.484 45.043 c 163.844 45.043 
160.906 48.746 160.906 54.574 c 160.906 60.559 163.719 64.246 168.234 
64.246 c 170.125 64.246 171.875 63.668 172.844 62.762 c 173.703 61.965 
174.188 60.981 174.531 59.246 c 177.578 59.246 l h
177.578 59.246 m f
193.004 44.715 m 192.707 44.653 192.582 44.653 192.426 44.653 c 191.488 
44.653 190.988 45.137 190.988 45.965 c 190.988 55.824 l 190.988 58.793 
188.801 60.403 184.676 60.403 c 182.254 60.403 180.238 59.699 179.113 
58.449 c 178.348 57.59 178.02 56.621 177.957 54.965 c 180.645 54.965 l 
180.863 57.012 182.082 57.934 184.582 57.934 c 186.988 57.934 188.332 
57.043 188.332 55.434 c 188.332 54.731 l 188.332 53.621 187.66 53.137 
185.535 52.887 c 181.77 52.403 181.191 52.278 180.16 51.856 c 178.223 
51.059 177.223 49.559 177.223 47.371 c 177.223 44.34 179.332 42.418 
182.723 42.418 c 184.832 42.418 186.535 43.153 188.426 44.887 c 188.613 
43.184 189.441 42.418 191.176 42.418 c 191.723 42.418 192.129 42.481 
193.004 42.699 c 193.004 44.715 l h
188.332 48.434 m 188.332 47.543 188.066 46.996 187.27 46.262 c 186.176 
45.262 184.863 44.746 183.301 44.746 c 181.223 44.746 180.004 45.746 
180.004 47.434 c 180.004 49.199 181.191 50.09 184.035 50.512 c 186.848 
50.903 187.426 51.028 188.332 51.434 c 188.332 48.434 l h
188.332 48.434 m f
197.629 59.918 m 197.629 43.153 l 200.316 43.153 l 200.316 51.856 l 
200.316 54.262 200.926 55.824 202.207 56.746 c 203.035 57.356 203.848 
57.559 205.691 57.59 c 205.691 60.309 l 205.254 60.371 205.02 60.403 
204.676 60.403 c 202.941 60.403 201.629 59.371 200.098 56.887 c 200.098 
59.918 l 197.629 59.918 l h
197.629 59.918 m f
f
236.594 59.918 m 236.594 43.153 l 239.281 43.153 l 239.281 51.856 l 
239.281 54.262 239.891 55.824 241.172 56.746 c 242 57.356 242.812 
57.559 244.656 57.59 c 244.656 60.309 l 244.219 60.371 243.984 60.403 
243.641 60.403 c 241.906 60.403 240.594 59.371 239.062 56.887 c 239.062 
59.918 l 236.594 59.918 l h
236.594 59.918 m f
270.301 50.637 m 270.301 53.199 270.098 54.731 269.629 55.981 c 268.535 
58.731 265.973 60.403 262.832 60.403 c 258.16 60.403 255.16 56.809 
255.16 51.309 c 255.16 45.809 258.066 42.418 262.77 42.418 c 266.613 
42.418 269.27 44.59 269.941 48.246 c 267.254 48.246 l 266.52 46.028 
265.02 44.887 262.863 44.887 c 261.176 44.887 259.738 45.653 258.832 
47.059 c 258.191 48.012 257.973 48.981 257.941 50.637 c 270.301 50.637 
l h
258.004 52.809 m 258.238 55.918 260.113 57.934 262.801 57.934 c 265.426 
57.934 267.441 55.762 267.441 53.012 c 267.441 52.949 267.441 52.887 
267.41 52.809 c 258.004 52.809 l h
258.004 52.809 m f
275.785 59.918 m 275.785 43.153 l 278.473 43.153 l 278.473 52.403 l 
278.473 55.824 280.27 58.059 283.02 58.059 c 285.129 58.059 286.473 
56.778 286.473 54.762 c 286.473 43.153 l 289.129 43.153 l 289.129 
55.824 l 289.129 58.606 287.051 60.403 283.816 60.403 c 281.332 60.403 
279.723 59.434 278.254 57.106 c 278.254 59.918 l 275.785 59.918 l h
275.785 59.918 m f
301.223 59.918 m 298.473 59.918 l 298.473 64.528 l 295.816 64.528 l 
295.816 59.918 l 293.551 59.918 l 293.551 57.746 l 295.816 57.746 l 
295.816 45.074 l 295.816 43.371 296.973 42.418 299.051 42.418 c 299.691 
42.418 300.332 42.481 301.223 42.637 c 301.223 44.887 l 300.879 44.778 
300.457 44.746 299.941 44.746 c 298.801 44.746 298.473 45.074 298.473 
46.262 c 298.473 57.746 l 301.223 57.746 l 301.223 59.918 l h
301.223 59.918 m f
329.828 44.715 m 329.531 44.653 329.406 44.653 329.25 44.653 c 328.312 
44.653 327.812 45.137 327.812 45.965 c 327.812 55.824 l 327.812 58.793 
325.625 60.403 321.5 60.403 c 319.078 60.403 317.062 59.699 315.938 
58.449 c 315.172 57.59 314.844 56.621 314.781 54.965 c 317.469 54.965 l 
317.688 57.012 318.906 57.934 321.406 57.934 c 323.812 57.934 325.156 
57.043 325.156 55.434 c 325.156 54.731 l 325.156 53.621 324.484 53.137 
322.359 52.887 c 318.594 52.403 318.016 52.278 316.984 51.856 c 315.047 
51.059 314.047 49.559 314.047 47.371 c 314.047 44.34 316.156 42.418 
319.547 42.418 c 321.656 42.418 323.359 43.153 325.25 44.887 c 325.438 
43.184 326.266 42.418 328 42.418 c 328.547 42.418 328.953 42.481 
329.828 42.699 c 329.828 44.715 l h
325.156 48.434 m 325.156 47.543 324.891 46.996 324.094 46.262 c 323 
45.262 321.688 44.746 320.125 44.746 c 318.047 44.746 316.828 45.746 
316.828 47.434 c 316.828 49.199 318.016 50.09 320.859 50.512 c 323.672 
50.903 324.25 51.028 325.156 51.434 c 325.156 48.434 l h
325.156 48.434 m f
337.105 66.481 m 334.418 66.481 l 334.418 43.153 l 337.105 43.153 l 
337.105 66.481 l h
337.105 66.481 m f
Q
showpage
%%Trailer
count op_count sub {pop} repeat
countdictstack dict_count sub {end} repeat
cairo_eps_state restore
%%EOF
