%!PS-Adobe-3.0 EPSF-3.0
%%Creator: cairo 1.8.8 (http://cairographics.org)
%%CreationDate: Tue Sep  8 14:30:37 2020
%%Pages: 1
%%BoundingBox: 1 1 254 118
%%DocumentData: Clean7Bit
%%LanguageLevel: 2
%%EndComments
%%BeginProlog
/cairo_eps_state save def
/dict_count countdictstack def
/op_count count 1 sub def
userdict begin
/q { gsave } bind def
/Q { grestore } bind def
/cm { 6 array astore concat } bind def
/w { setlinewidth } bind def
/J { setlinecap } bind def
/j { setlinejoin } bind def
/M { setmiterlimit } bind def
/d { setdash } bind def
/m { moveto } bind def
/l { lineto } bind def
/c { curveto } bind def
/h { closepath } bind def
/re { exch dup neg 3 1 roll 5 3 roll moveto 0 rlineto
      0 exch rlineto 0 rlineto closepath } bind def
/S { stroke } bind def
/f { fill } bind def
/f* { eofill } bind def
/B { fill stroke } bind def
/B* { eofill stroke } bind def
/n { newpath } bind def
/W { clip } bind def
/W* { eoclip } bind def
/BT { } bind def
/ET { } bind def
/pdfmark where { pop globaldict /?pdfmark /exec load put }
    { globaldict begin /?pdfmark /pop load def /pdfmark
    /cleartomark load def end } ifelse
/BDC { mark 3 1 roll /BDC pdfmark } bind def
/EMC { mark /EMC pdfmark } bind def
/cairo_store_point { /cairo_point_y exch def /cairo_point_x exch def } def
/Tj { show currentpoint cairo_store_point } bind def
/TJ {
  {
    dup
    type /stringtype eq
    { show } { -0.001 mul 0 cairo_font_matrix dtransform rmoveto } ifelse
  } forall
  currentpoint cairo_store_point
} bind def
/cairo_selectfont { cairo_font_matrix aload pop pop pop 0 0 6 array astore
    cairo_font exch selectfont cairo_point_x cairo_point_y moveto } bind def
/Tf { pop /cairo_font exch def /cairo_font_matrix where
      { pop cairo_selectfont } if } bind def
/Td { matrix translate cairo_font_matrix matrix concatmatrix dup
      /cairo_font_matrix exch def dup 4 get exch 5 get cairo_store_point
      /cairo_font where { pop cairo_selectfont } if } bind def
/Tm { 2 copy 8 2 roll 6 array astore /cairo_font_matrix exch def
      cairo_store_point /cairo_font where { pop cairo_selectfont } if } bind def
/g { setgray } bind def
/rg { setrgbcolor } bind def
/d1 { setcachedevice } bind def
%%EndProlog
%%Page: 1 1
%%BeginPageSetup
%%PageBoundingBox: 1 1 254 118
%%EndPageSetup
q
0.180392 0.203922 0.243137 rg
109.535 59.393 m 109.535 31.698 87.086 9.253 59.395 9.253 c 31.699 
9.253 9.254 31.698 9.254 59.393 c 9.254 87.085 31.699 109.534 59.395 
109.534 c 87.086 109.534 109.535 87.085 109.535 59.393 c h
109.535 59.393 m f
0.317647 0.337255 0.368627 rg
102.105 59.393 m 102.105 35.803 82.98 16.682 59.391 16.682 c 35.805 
16.682 16.68 35.803 16.68 59.393 c 16.68 82.979 35.805 102.104 59.391 
102.104 c 82.98 102.104 102.105 82.979 102.105 59.393 c h
102.105 59.393 m f
0.67451 0.941176 0.94902 rg
100.098 18.686 m 122.578 41.167 122.578 77.616 100.098 100.1 c 94.848 
94.846 l 114.426 75.264 114.426 43.518 94.848 23.936 c 100.098 18.686 l 
h
100.098 18.686 m f
18.684 100.1 m -3.637 77.776 -3.637 41.01 18.684 18.686 c 23.938 23.94 
l 4.242 43.635 4.242 75.151 23.938 94.846 c 18.684 100.1 l h
18.684 100.1 m f
100.098 100.1 m 77.617 122.581 41.008 122.42 18.688 100.1 c 23.938 
94.846 l 43.637 114.542 75.266 114.428 94.848 94.846 c 100.098 100.1 l 
h
100.098 100.1 m f
18.684 18.686 m 41.008 -3.638 77.777 -3.638 100.098 18.686 c 94.848 
23.936 l 75.148 4.241 43.633 4.241 23.938 23.936 c 18.684 18.686 l h
18.684 18.686 m f
1 g
57.473 33.385 m 61.121 33.385 l 61.121 29.737 l 57.473 29.737 l 57.473 
33.385 l h
57.473 33.385 m f
57.473 40.928 m 61.121 40.928 l 61.121 37.038 l 57.473 37.038 l 57.473 
40.928 l h
57.473 40.928 m f
57.473 48.225 m 61.121 48.225 l 61.121 44.577 l 57.473 44.577 l 57.473 
48.225 l h
57.473 48.225 m f
86.93 89.612 m 86.082 90.389 85.191 91.135 84.281 91.835 c 83.699 92.28 
83.102 92.713 82.5 93.128 c 84.566 96.135 l 85.219 95.686 85.871 95.213 
86.5 94.729 c 87.492 93.967 88.465 93.155 89.391 92.311 c 86.93 89.612 
l h
86.93 89.612 m f
103.926 59.417 m 100.277 59.417 l 100.277 69.631 96.492 79.401 89.613 
86.944 c 92.309 89.409 l 99.801 81.19 103.926 70.604 103.926 59.417 c h
103.926 59.417 m f
73.195 51.733 m 71.996 51.733 71.02 50.756 71.02 49.557 c 71 46.346 l 
70.953 46.354 70.906 46.366 70.855 46.378 c 70.879 50.71 l 70.879 
51.909 69.902 52.885 68.703 52.885 c 67.504 52.885 66.527 51.913 66.527 
50.71 c 66.504 46.487 l 66.355 46.487 l 66.387 52.17 l 66.387 53.37 
65.41 54.346 64.211 54.346 c 63.012 54.346 62.035 53.37 62.035 52.17 c 
62.016 46.479 l 61.961 46.479 61.859 46.475 61.859 46.475 c 61.859 
60.815 l 61.859 62.014 60.828 62.991 59.625 62.991 c 58.426 62.991 
57.395 62.014 57.395 60.815 c 57.395 43.889 l 57.395 43.889 57.438 
43.885 57.438 43.885 c 53.449 48.034 l 53.18 48.311 52.801 48.467 
52.367 48.467 c 51.789 48.467 51.191 48.206 50.719 47.745 c 49.855 
46.913 49.621 45.682 50.277 45.006 c 56.484 38.522 l 56.484 37.577 l 
56.484 34.467 59.105 31.92 62.16 31.92 c 69.77 31.92 l 72.828 31.92 
75.203 34.467 75.203 37.577 c 75.203 38.971 l 75.316 49.557 l 75.316 
50.756 74.395 51.733 73.195 51.733 c h
73.195 51.733 m f
0.168627 0.0196078 0.0156863 rg
69.77 31.776 m 62.16 31.776 l 58.941 31.776 56.34 34.315 56.34 37.577 c 
56.34 38.401 l 50.141 44.803 l 49.375 45.596 49.543 47.01 50.523 47.96 
c 51.051 48.467 51.727 48.76 52.383 48.76 c 52.898 48.76 53.391 48.577 
53.719 48.237 c 57.25 44.612 l 57.25 60.815 l 57.25 62.178 58.336 
63.288 59.699 63.288 c 61.062 63.288 62.148 62.178 62.148 60.815 c 
62.148 53.506 l 62.625 54.19 63.348 54.643 64.219 54.643 c 65.582 
54.643 66.684 53.534 66.684 52.174 c 66.684 52.131 l 67.129 52.764 
67.867 53.178 68.703 53.178 c 69.98 53.178 71.035 52.206 71.16 50.96 c 
71.605 51.604 72.352 52.03 73.195 52.03 c 74.559 52.03 75.691 50.92 
75.691 49.557 c 75.66 38.971 l 75.66 37.577 l 75.66 34.315 72.988 
31.776 69.77 31.776 c h
52.379 48.17 m 51.875 48.17 51.348 47.94 50.93 47.534 c 50.184 46.811 
50.016 45.772 50.555 45.213 c 56.84 38.725 l 56.895 38.67 56.938 38.596 
56.938 38.522 c 56.938 37.577 l 56.938 34.639 59.266 32.233 62.16 
32.233 c 69.77 32.233 l 72.664 32.233 75.035 34.639 75.035 37.577 c 
75.035 38.971 l 75.082 49.557 l 75.082 50.596 74.234 51.44 73.199 51.44 
c 72.16 51.44 71.316 50.596 71.316 49.557 c 71.297 46.342 l 71.297 
46.256 71.254 46.167 71.184 46.112 c 71.117 46.057 71.023 46.038 70.938 
46.057 c 70.891 46.069 70.844 46.077 70.797 46.088 c 70.664 46.112 
70.559 46.241 70.562 46.378 c 70.582 50.71 l 70.582 51.745 69.738 
52.588 68.703 52.588 c 67.664 52.588 66.82 51.749 66.82 50.713 c 66.801 
46.483 l 66.797 46.319 66.668 46.174 66.504 46.174 c 66.355 46.174 l 
66.277 46.174 66.203 46.221 66.148 46.276 c 66.094 46.331 66.062 46.413 
66.062 46.491 c 66.09 52.174 l 66.09 53.206 65.246 54.049 64.211 54.049 
c 63.172 54.049 62.328 53.206 62.328 52.17 c 62.297 46.479 l 62.297 
46.319 62.172 46.19 62.012 46.186 c 61.965 46.186 61.918 46.182 61.871 
46.178 c 61.855 46.178 l 61.773 46.174 61.695 46.202 61.637 46.26 c 
61.578 46.315 61.547 46.393 61.547 46.475 c 61.547 60.815 l 61.547 
61.854 60.664 62.698 59.625 62.698 c 58.59 62.698 57.707 61.854 57.707 
60.815 c 57.707 43.889 l 57.707 43.846 57.734 43.784 57.691 43.721 c 
57.641 43.647 57.582 43.6 57.496 43.592 c 57.406 43.581 57.324 43.616 
57.262 43.678 c 53.258 47.827 l 53.043 48.049 52.734 48.17 52.379 48.17 
c h
52.379 48.17 m f
0.152941 0.478431 0.760784 rg
59.773 66.682 m 57.012 66.682 54.793 64.436 54.793 61.67 c 54.793 
59.983 55.57 58.491 56.938 57.581 c 56.938 58.792 l 56.172 59.53 55.719 
60.549 55.719 61.67 c 55.719 63.924 57.535 65.756 59.789 65.756 c 
62.043 65.756 63.875 63.924 63.875 61.67 c 63.875 60.436 63.227 59.327 
62.457 58.577 c 62.457 57.428 l 63.852 58.319 64.797 59.885 64.797 
61.67 c 64.797 64.436 62.539 66.682 59.773 66.682 c h
59.773 66.682 m f
0.411765 0.470588 0.447059 rg
59.773 71.186 m 54.316 71.186 49.883 66.745 49.883 61.288 c 49.883 
59.413 50.402 57.698 51.312 56.159 c 52.52 56.159 l 51.434 57.53 50.98 
59.518 50.98 61.292 c 50.98 65.741 54.762 70.096 59.777 70.096 c 64.785 
70.096 68.598 65.741 68.598 61.292 c 68.598 59.503 68.172 57.53 67.051 
56.159 c 68.234 56.159 l 69.145 57.698 69.664 59.417 69.664 61.292 c 
69.664 66.749 65.234 71.186 59.773 71.186 c h
59.773 71.186 m f
0.152941 0.478431 0.760784 rg
45.055 61.124 m 45.055 68.19 51.305 75.792 59.703 75.792 c 68.094 
75.792 74.305 68.182 74.305 61.116 c 74.305 59.448 74.02 57.698 73.418 
56.159 c 74.586 56.159 l 75.113 57.698 75.398 59.378 75.398 61.124 c 
75.398 69.792 68.363 76.854 59.695 76.854 c 51.031 76.854 43.992 69.784 
43.992 61.116 c 43.992 59.37 44.277 57.698 44.801 56.159 c 46.008 
56.159 l 45.387 57.838 45.055 59.467 45.055 61.124 c h
45.055 61.124 m f
0 g
162.699 66.284 m 161.355 73.753 157.059 77.409 149.574 77.409 c 144.996 
77.409 141.309 75.956 138.793 73.159 c 135.699 69.784 134.027 64.924 
134.027 59.409 c 134.027 53.815 135.746 49.003 138.965 45.674 c 141.59 
42.971 144.949 41.706 149.387 41.706 c 157.699 41.706 162.371 46.19 
163.402 55.206 c 158.918 55.206 l 158.543 52.878 158.074 51.284 157.387 
49.924 c 155.98 47.128 153.074 45.534 149.434 45.534 c 142.668 45.534 
138.371 50.956 138.371 59.456 c 138.371 68.206 142.48 73.565 149.059 
73.565 c 151.824 73.565 154.387 72.737 155.793 71.424 c 157.059 70.253 
157.746 68.799 158.262 66.284 c 162.699 66.284 l h
162.699 66.284 m f
0.419608 0.541176 0.411765 rg
172.781 67.764 m 172.781 65.342 l 171.438 67.311 169.797 68.249 167.656 
68.249 c 163.406 68.249 160.516 64.53 160.516 59.092 c 160.516 56.342 
161.25 54.108 162.641 52.499 c 163.875 51.092 165.672 50.264 167.438 
50.264 c 169.547 50.264 171.016 51.155 172.516 53.264 c 172.516 52.405 
l 172.516 50.139 172.234 48.764 171.562 47.827 c 170.859 46.842 169.484 
46.264 167.844 46.264 c 166.641 46.264 165.547 46.577 164.812 47.155 c 
164.203 47.639 163.953 48.092 163.781 49.077 c 161.062 49.077 l 161.359 
45.905 163.812 44.03 167.75 44.03 c 170.25 44.03 172.391 44.827 173.484 
46.17 c 174.766 47.702 175.234 49.811 175.234 53.749 c 175.234 67.764 l 
172.781 67.764 l h
167.953 65.78 m 170.828 65.78 172.516 63.358 172.516 59.155 c 172.516 
55.155 170.797 52.733 167.984 52.733 c 165.062 52.733 163.312 55.186 
163.312 59.249 c 163.312 63.28 165.094 65.78 167.953 65.78 c h
167.953 65.78 m f
191.949 58.483 m 191.949 61.045 191.746 62.577 191.277 63.827 c 190.184 
66.577 187.621 68.249 184.48 68.249 c 179.809 68.249 176.809 64.655 
176.809 59.155 c 176.809 53.655 179.715 50.264 184.418 50.264 c 188.262 
50.264 190.918 52.436 191.59 56.092 c 188.902 56.092 l 188.168 53.874 
186.668 52.733 184.512 52.733 c 182.824 52.733 181.387 53.499 180.48 
54.905 c 179.84 55.858 179.621 56.827 179.59 58.483 c 191.949 58.483 l 
h
179.652 60.655 m 179.887 63.764 181.762 65.78 184.449 65.78 c 187.074 
65.78 189.09 63.608 189.09 60.858 c 189.09 60.795 189.09 60.733 189.059 
60.655 c 179.652 60.655 l h
179.652 60.655 m f
193.539 67.764 m 193.539 50.999 l 196.227 50.999 l 196.227 60.249 l 
196.227 63.67 198.023 65.905 200.773 65.905 c 202.883 65.905 204.227 
64.624 204.227 62.608 c 204.227 50.999 l 206.883 50.999 l 206.883 63.67 
l 206.883 66.452 204.805 68.249 201.57 68.249 c 199.086 68.249 197.477 
67.28 196.008 64.952 c 196.008 67.764 l 193.539 67.764 l h
193.539 67.764 m f
215.625 68.249 m 210.922 68.249 208.078 64.889 208.078 59.249 c 208.078 
53.624 210.891 50.264 215.656 50.264 c 220.359 50.264 223.234 53.624 
223.234 59.124 c 223.234 64.92 220.453 68.249 215.625 68.249 c h
215.656 65.78 m 218.672 65.78 220.453 63.311 220.453 59.155 c 220.453 
55.217 218.609 52.733 215.656 52.733 c 212.688 52.733 210.859 55.186 
210.859 59.249 c 210.859 63.28 212.688 65.78 215.656 65.78 c h
215.656 65.78 m f
231.98 50.999 m 238.402 67.764 l 235.402 67.764 l 230.668 54.17 l 
226.184 67.764 l 223.168 67.764 l 229.059 50.999 l 231.98 50.999 l h
231.98 50.999 m f
254.508 52.561 m 254.211 52.499 254.086 52.499 253.93 52.499 c 252.992 
52.499 252.492 52.983 252.492 53.811 c 252.492 63.67 l 252.492 66.639 
250.305 68.249 246.18 68.249 c 243.758 68.249 241.742 67.545 240.617 
66.295 c 239.852 65.436 239.523 64.467 239.461 62.811 c 242.148 62.811 
l 242.367 64.858 243.586 65.78 246.086 65.78 c 248.492 65.78 249.836 
64.889 249.836 63.28 c 249.836 62.577 l 249.836 61.467 249.164 60.983 
247.039 60.733 c 243.273 60.249 242.695 60.124 241.664 59.702 c 239.727 
58.905 238.727 57.405 238.727 55.217 c 238.727 52.186 240.836 50.264 
244.227 50.264 c 246.336 50.264 248.039 50.999 249.93 52.733 c 250.117 
51.03 250.945 50.264 252.68 50.264 c 253.227 50.264 253.633 50.327 
254.508 50.545 c 254.508 52.561 l h
249.836 56.28 m 249.836 55.389 249.57 54.842 248.773 54.108 c 247.68 
53.108 246.367 52.592 244.805 52.592 c 242.727 52.592 241.508 53.592 
241.508 55.28 c 241.508 57.045 242.695 57.936 245.539 58.358 c 248.352 
58.749 248.93 58.874 249.836 59.28 c 249.836 56.28 l h
249.836 56.28 m f
Q
showpage
%%Trailer
count op_count sub {pop} repeat
countdictstack dict_count sub {end} repeat
cairo_eps_state restore
%%EOF
